%YAML 1.1
%TAG !u! tag:unity3d.com,2011:
--- !u!1386491679 &1
PresetManager:
  m_ObjectHideFlags: 0
  m_DefaultList:
  - type:
      m_NativeTypeID: 20
      m_ManagedTypePPtr: {fileID: 0}
      m_ManagedTypeFallback: 
    defaultPresets:
    - m_Preset: {fileID: 2655988077585873504, guid: cecc9492d44f7734ea835dff3d8b7a48,
        type: 2}
